%YAML 1.1
%TAG !u! tag:unity3d.com,2011:
--- !u!114 &11400000
MonoBehaviour:
  m_ObjectHideFlags: 0
  m_CorrespondingSourceObject: {fileID: 0}
  m_PrefabInstance: {fileID: 0}
  m_PrefabAsset: {fileID: 0}
  m_GameObject: {fileID: 0}
  m_Enabled: 1
  m_EditorHideFlags: 0
  m_Script: {fileID: 11500000, guid: 360a4fe959866b141b92bd366ffbdbc4, type: 3}
  m_Name: Snake
  m_EditorClassIdentifier: 
  name: 
  translateName:
  - "\u86C7"
  - Snake
  - Serpent
  - Schlange
  - Ular
  - "\u30D8\u30D3"
  - Ular
  - Serpiente
  description: 
  translateDesc:
  - "\u6211\u662F\u98DF\u8089\u52A8\u7269\uFF0C\u56E0\u4E3A\u6211\u5403\u8089"
  - I'm a carnivore because I eat meat
  - Je suis carnivore parce que je mange de la viande
  - Ich bin ein Fleischfresser, weil ich Fleisch esse
  - Aku hewan karnivora karena aku makan daging
  - "\u79C1\u306F\u8089\u3092\u98DF\u3079\u308B\u306E\u3067\u8089\u98DF\u52D5\u7269\u3067\u3059"
  - Aku hewan karnivora kerana aku makan daging
  - "oy carn\xEDvora porque como carne"
  image: {fileID: 21300000, guid: 50a5252d901e7594b907c92e6b94d3c3, type: 3}
  backgroundImage: {fileID: 21300000, guid: 3844e3b3bf3e7874d99803fb17f93e01, type: 3}
  animalSound: {fileID: 8300000, guid: e1d346dce9f36304d84a77580b842773, type: 3}
  spellingSound: {fileID: 0}
  translateSpellingSound:
  - {fileID: 8300000, guid: 6a124183dce6833418bfd1ba68251f64, type: 3}
  - {fileID: 8300000, guid: 9dd12dd26b1e67a4cb8a07d2487dfde2, type: 3}
  - {fileID: 8300000, guid: 72b5dea7ef2955d4ab0673cd13fae67f, type: 3}
  - {fileID: 8300000, guid: 964bbc87e6b7dae4bb8c4c5959c5fab4, type: 3}
  - {fileID: 8300000, guid: a6ea305d2ab100e43a1365b3a9bb9136, type: 3}
  - {fileID: 8300000, guid: c1d1062f179491545ae2b12ebd59aba7, type: 3}
  - {fileID: 8300000, guid: a6ea305d2ab100e43a1365b3a9bb9136, type: 3}
  - {fileID: 8300000, guid: 7bda45d16048e3a48a0016079d87f896, type: 3}
  isSoundReady: 1
